module gitlab.com/suleimiahmed/bbm-poc

go 1.21

require (
	github.com/Masterminds/squirrel v1.5.4
	github.com/go-gorp/gorp/v3 v3.1.0
	github.com/golang-migrate/migrate/v4 v4.17.1
	github.com/lib/pq v1.10.9
	github.com/olekukonko/tablewriter v0.0.5
	github.com/rs/zerolog v1.32.0
	github.com/rubenv/sql-migrate v1.6.1
	github.com/simukti/sqldb-logger v0.0.0-20230108155151-646c1a075551
	github.com/simukti/sqldb-logger/logadapter/zerologadapter v0.0.0-20230108155151-646c1a075551
	github.com/spf13/cobra v1.8.0
	github.com/spf13/viper v1.18.2
	github.com/stretchr/testify v1.9.0
	github.com/testcontainers/testcontainers-go v0.30.0
	github.com/testcontainers/testcontainers-go/modules/postgres v0.30.0
	go.uber.org/zap v1.21.0
)

require (
	dario.cat/mergo v1.0.0 // indirect
	github.com/Azure/go-ansiterm v0.0.0-20230124172434-306776ec8161 // indirect
	github.com/Microsoft/go-winio v0.6.1 // indirect
	github.com/Microsoft/hcsshim v0.11.4 // indirect
	github.com/cenkalti/backoff/v4 v4.2.1 // indirect
	github.com/containerd/containerd v1.7.12 // indirect
	github.com/containerd/log v0.1.0 // indirect
	github.com/cpuguy83/dockercfg v0.3.1 // indirect
	github.com/davecgh/go-spew v1.1.2-0.20180830191138-d8f796af33cc // indirect
	github.com/distribution/reference v0.5.0 // indirect
	github.com/docker/docker v25.0.5+incompatible // indirect
	github.com/docker/go-connections v0.5.0 // indirect
	github.com/docker/go-units v0.5.0 // indirect
	github.com/felixge/httpsnoop v1.0.4 // indirect
	github.com/fsnotify/fsnotify v1.7.0 // indirect
	github.com/go-logr/logr v1.4.1 // indirect
	github.com/go-logr/stdr v1.2.2 // indirect
	github.com/go-ole/go-ole v1.2.6 // indirect
	github.com/gogo/protobuf v1.3.2 // indirect
	github.com/golang/protobuf v1.5.3 // indirect
	github.com/google/uuid v1.6.0 // indirect
	github.com/hashicorp/hcl v1.0.0 // indirect
	github.com/inconshreveable/mousetrap v1.1.0 // indirect
	github.com/klauspost/compress v1.17.0 // indirect
	github.com/lann/builder v0.0.0-20180802200727-47ae307949d0 // indirect
	github.com/lann/ps v0.0.0-20150810152359-62de8c46ede0 // indirect
	github.com/lufia/plan9stats v0.0.0-20211012122336-39d0f177ccd0 // indirect
	github.com/magiconair/properties v1.8.7 // indirect
	github.com/mattn/go-colorable v0.1.13 // indirect
	github.com/mattn/go-isatty v0.0.19 // indirect
	github.com/mattn/go-runewidth v0.0.9 // indirect
	github.com/mitchellh/mapstructure v1.5.0 // indirect
	github.com/moby/patternmatcher v0.6.0 // indirect
	github.com/moby/sys/sequential v0.5.0 // indirect
	github.com/moby/sys/user v0.1.0 // indirect
	github.com/moby/term v0.5.0 // indirect
	github.com/morikuni/aec v1.0.0 // indirect
	github.com/opencontainers/go-digest v1.0.0 // indirect
	github.com/opencontainers/image-spec v1.1.0 // indirect
	github.com/pelletier/go-toml/v2 v2.1.0 // indirect
	github.com/pkg/errors v0.9.1 // indirect
	github.com/pmezard/go-difflib v1.0.1-0.20181226105442-5d4384ee4fb2 // indirect
	github.com/power-devops/perfstat v0.0.0-20210106213030-5aafc221ea8c // indirect
	github.com/sagikazarmark/locafero v0.4.0 // indirect
	github.com/sagikazarmark/slog-shim v0.1.0 // indirect
	github.com/shirou/gopsutil/v3 v3.23.12 // indirect
	github.com/shoenig/go-m1cpu v0.1.6 // indirect
	github.com/sirupsen/logrus v1.9.3 // indirect
	github.com/sourcegraph/conc v0.3.0 // indirect
	github.com/spf13/afero v1.11.0 // indirect
	github.com/spf13/cast v1.6.0 // indirect
	github.com/spf13/pflag v1.0.5 // indirect
	github.com/subosito/gotenv v1.6.0 // indirect
	github.com/tklauser/go-sysconf v0.3.12 // indirect
	github.com/tklauser/numcpus v0.6.1 // indirect
	github.com/yusufpapurcu/wmi v1.2.3 // indirect
	go.opentelemetry.io/contrib/instrumentation/net/http/otelhttp v0.49.0 // indirect
	go.opentelemetry.io/otel v1.24.0 // indirect
	go.opentelemetry.io/otel/metric v1.24.0 // indirect
	go.opentelemetry.io/otel/trace v1.24.0 // indirect
	go.uber.org/atomic v1.9.0 // indirect
	go.uber.org/multierr v1.9.0 // indirect
	golang.org/x/exp v0.0.0-20230905200255-921286631fa9 // indirect
	golang.org/x/mod v0.16.0 // indirect
	golang.org/x/sys v0.17.0 // indirect
	golang.org/x/text v0.14.0 // indirect
	golang.org/x/tools v0.13.0 // indirect
	google.golang.org/genproto/googleapis/rpc v0.0.0-20231120223509-83a465c0220f // indirect
	google.golang.org/grpc v1.59.0 // indirect
	google.golang.org/protobuf v1.33.0 // indirect
	gopkg.in/ini.v1 v1.67.0 // indirect
	gopkg.in/yaml.v3 v3.0.1 // indirect
)
